…
      sheet = .x, 
      range = "B1:B2"
    )
  ) |> 
  map(~ pull(.x)) |> 
  reduce(c)
release_dates_df <- 
  tibble(
    series = sheet_names2, 
    release_date = release_dates
  )
release_dates_df
```

    ## # A tibble: 125 × 2
    ##    series                    release_date       
    ##    <chr>                     <dttm>             
    ##  1 Wizards Black Star Promos 1999-07-02 00:00:00
    ##  2 Base Set                  1999-01-09 00:00:00
    ##  3 Jungle                    1999-06-16 00:00:00
    ##  4 Fossil                    1999-10-10 00:00:00
    ##  5 Base Set 2                2000-02-24 00:00:00
    ##  6 Team Rocket               2000-04-24 00:00:00
    ##  7 Gym Heroes                2000-08-04 00:00:00
    ##  8 Gym Challenge             2000-10-16 00:00:00
    ##  9 Legendary Collection      2002-05-04 00:00:00
    ## 10 Neo Genesis               2000-12-16 00:00:00
    ## # … with 115 more rows
    ## # ℹ Use `print(n = ...)` to see more rows
…
    .y = 1:8,
    ~ mutate(.data = .x, series_gen = rep(.y, nrow(.x)))
  ) |> 
  bind_rows()
release_dates_df2 <- 
  left_join(release_dates_df, series_gen, by = "series") |> 
  arrange(release_date) |> 
  mutate(
    lead = lead(series_gen),
    series_gen = if_else(is.na(series_gen), lead, series_gen),
    lead = NULL) 
release_dates_df2
```

    ## # A tibble: 125 × 3
    ##    series                    release_date        series_gen
    ##    <chr>                     <dttm>                   <int>
    ##  1 Base Set                  1999-01-09 00:00:00          1
    ##  2 Jungle                    1999-06-16 00:00:00          1
    ##  3 Wizards Black Star Promos 1999-07-02 00:00:00          1
    ##  4 Fossil                    1999-10-10 00:00:00          1
    ##  5 Base Set 2                2000-02-24 00:00:00          1
    ##  6 Team Rocket               2000-04-24 00:00:00          1
    ##  7 Gym Heroes                2000-08-04 00:00:00          1
    ##  8 Gym Challenge             2000-10-16 00:00:00          1
    ##  9 Neo Genesis               2000-12-16 00:00:00          2
    ## 10 Neo Discovery             2001-06-01 00:00:00          2
    ## # … with 115 more rows
    ## # ℹ Use `print(n = ...)` to see more rows
…
``` r
series_classification_df <- bind_rows(
  series_main_expansions_df, 
  series_special_expansions_df, 
  series_black_star_promos_df,
  series_pop_series_df,
  series_mcdonalds_df)
series_classification_df
```

    ## # A tibble: 146 × 12
    ##    `EN no.` `JP no.` `EN symbol` JP sy…¹ Engli…² Japan…³ EN ca…⁴ JP ca…⁵ EN re…⁶
    ##    <chr>    <chr>    <chr>       <chr>   <chr>   <chr>   <chr>   <chr>   <chr>  
    ##  1 1        1        —           —       Base S… Expans… 102     102     Januar…
    ##  2 2        2        <NA>        <NA>    Jungle  Pokémo… 64      48      June 1…
    ##  3 3        3        <NA>        <NA>    Fossil  Myster… 62      48      Octobe…
    ##  4 4        —        <NA>        —       Base S… —       130     —       Februa…
    ##  5 5        4        <NA>        <NA>    Team R… Rocket… 83      65      April …
    ##  6 6        5        <NA>        <NA>    Gym He… Leader… 132     96      August…
    ##  7 7        6        <NA>        <NA>    Gym Ch… Challe… 132     98      Octobe…
    ##  8 8        7        <NA>        <NA>    Neo Ge… Gold, … 111     96      Decemb…
    ##  9 9        8        <NA>        <NA>    Neo Di… Crossi… 75      56      June 1…
    ## 10 10       9        <NA>        <NA>    Neo Re… Awaken… 66      57      Septem…
    ## # … with 136 more rows, 3 more variables: `JP release date` <chr>,
    ## #   `Set abb.` <chr>, series_class <chr>, and abbreviated variable names
    ## #   ¹​`JP symbol`, ²​`English name`, ³​`Japanese name`, ⁴​`EN cards`, ⁵​`JP cards`,
    ## #   ⁶​`EN release date`
    ## # ℹ Use `print(n = ...)` to see more rows, and `colnames()` to see all variable names
…
    cards_total_ja = `JP cards`,
    release_date = `EN release date`,
    release_date_ja = `JP release date`,
         ) |> 
  select(-`EN symbol`, -`JP symbol`, -`EN no.`, -`JP no.`) |>
  # separate https://tidyr.tidyverse.org/reference/separate.html
  separate(
    cards_total_ja, 
    into = c("cards_total_ja_1", "cards_total_ja_2"),
    fill = "right"
  )
series_classification_df2
```

    ## # A tibble: 146 × 9
    ##    series        serie…¹ cards…² cards…³ cards…⁴ relea…⁵ relea…⁶ serie…⁷ serie…⁸
    ##    <chr>         <chr>   <chr>   <chr>   <chr>   <chr>   <chr>   <chr>   <chr>  
    ##  1 Base Set      Expans… 102     "102"   <NA>    Januar… Octobe… BS      Main E…
    ##  2 Jungle        Pokémo… 64      "48"    <NA>    June 1… March … JU      Main E…
    ##  3 Fossil        Myster… 62      "48"    <NA>    Octobe… June 2… FO      Main E…
    ##  4 Base Set 2    —       130     ""      ""      Februa… —       B2      Main E…
    ##  5 Team Rocket   Rocket… 83      "65"    <NA>    April … Novemb… TR      Main E…
    ##  6 Gym Heroes    Leader… 132     "96"    <NA>    August… Octobe… G1      Main E…
    ##  7 Gym Challenge Challe… 132     "98"    <NA>    Octobe… June 2… G2      Main E…
    ##  8 Neo Genesis   Gold, … 111     "96"    <NA>    Decemb… Februa… N1      Main E…
    ##  9 Neo Discovery Crossi… 75      "56"    <NA>    June 1… July 7… N2      Main E…
    ## 10 Neo Revelati… Awaken… 66      "57"    <NA>    Septem… Novemb… N3      Main E…
    ## # … with 136 more rows, and abbreviated variable names ¹​series_ja,
    ## #   ²​cards_total, ³​cards_total_ja_1, ⁴​cards_total_ja_2, ⁵​release_date,
    ## #   ⁶​release_date_ja, ⁷​series_abb, ⁸​series_class
    ## # ℹ Use `print(n = ...)` to see more rows
…
  ) |> 
  mutate(
    across(
      everything(), 
      ~ recode(
        .,
        "—" = NA_character_, 
        "Ongoing" = NA_character_)
    ),
    release_date_ja_2 = str_replace(release_date_ja_2, "\\s\\*", "")
  )
series_classification_df3
```

    ## # A tibble: 146 × 10
    ##    series        serie…¹ cards…² cards…³ cards…⁴ relea…⁵ relea…⁶ relea…⁷ serie…⁸
    ##    <chr>         <chr>   <chr>   <chr>   <chr>   <chr>   <chr>   <chr>   <chr>  
    ##  1 Base Set      Expans… 102     "102"   <NA>    Januar… Octobe… <NA>    BS     
    ##  2 Jungle        Pokémo… 64      "48"    <NA>    June 1… March … <NA>    JU     
    ##  3 Fossil        Myster… 62      "48"    <NA>    Octobe… June 2… <NA>    FO     
    ##  4 Base Set 2    <NA>    130     ""      ""      Februa… <NA>    <NA>    B2     
    ##  5 Team Rocket   Rocket… 83      "65"    <NA>    April … Novemb… <NA>    TR     
    ##  6 Gym Heroes    Leader… 132     "96"    <NA>    August… Octobe… <NA>    G1     
    ##  7 Gym Challenge Challe… 132     "98"    <NA>    Octobe… June 2… <NA>    G2     
    ##  8 Neo Genesis   Gold, … 111     "96"    <NA>    Decemb… Februa… <NA>    N1     
    ##  9 Neo Discovery Crossi… 75      "56"    <NA>    June 1… July 7… <NA>    N2     
    ## 10 Neo Revelati… Awaken… 66      "57"    <NA>    Septem… Novemb… <NA>    N3     
    ## # … with 136 more rows, 1 more variable: series_class <chr>, and abbreviated
    ## #   variable names ¹​series_ja, ²​cards_total, ³​cards_total_ja_1,
    ## #   ⁴​cards_total_ja_2, ⁵​release_date, ⁶​release_date_ja_1, ⁷​release_date_ja_2,
    ## #   ⁸​series_abb
    ## # ℹ Use `print(n = ...)` to see more rows, and `colnames()` to see all variable names
…
        release_date_ja_2,
        "[:digit:]{4}"
      ),
    release_date_ja_2 = 
      str_c(
        release_date_year, 
        release_date_month, 
        release_date_day
      ) |> 
      parse_date_time(orders = "ybd"),
  )
series_classification_df4
```

    ## # A tibble: 146 × 13
    ##    series         series_ja          cards…¹ cards…² cards…³ release_date       
    ##    <chr>          <chr>              <chr>   <chr>   <chr>   <dttm>             
    ##  1 Base Set       Expansion Pack     102     "102"   <NA>    1999-01-09 00:00:00
    ##  2 Jungle         Pokémon Jungle     64      "48"    <NA>    1999-06-16 00:00:00
    ##  3 Fossil         Mystery of the Fo… 62      "48"    <NA>    1999-10-10 00:00:00
    ##  4 Base Set 2     <NA>               130     ""      ""      2000-02-24 00:00:00
    ##  5 Team Rocket    Rocket Gang        83      "65"    <NA>    2000-04-24 00:00:00
    ##  6 Gym Heroes     Leaders' Stadium   132     "96"    <NA>    2000-08-14 00:00:00
    ##  7 Gym Challenge  Challenge from th… 132     "98"    <NA>    2000-10-16 00:00:00
    ##  8 Neo Genesis    Gold, Silver, to … 111     "96"    <NA>    2000-12-16 00:00:00
    ##  9 Neo Discovery  Crossing the Ruin… 75      "56"    <NA>    2001-06-01 00:00:00
    ## 10 Neo Revelation Awakening Legends  66      "57"    <NA>    2001-09-21 00:00:00
    ## # … with 136 more rows, 7 more variables: release_date_ja_1 <dttm>,
    ## #   release_date_ja_2 <dttm>, series_abb <chr>, series_class <chr>,
    ## #   release_date_month <chr>, release_date_day <chr>, release_date_year <chr>,
    ## #   and abbreviated variable names ¹​cards_total, ²​cards_total_ja_1,
    ## #   ³​cards_total_ja_2
    ## # ℹ Use `print(n = ...)` to see more rows, and `colnames()` to see all variable names
…
    series_class,
    series,
    series_abb,
    series_ja,
    cards_total,
    release_date,
    cards_total_ja_1,
    cards_total_ja_2,
    release_date_ja_1,
    release_date_ja_2,
  )
series_classification_df5
```

    ## # A tibble: 146 × 10
    ##    series_c…¹ series serie…² serie…³ cards…⁴ release_date        cards…⁵ cards…⁶
    ##    <chr>      <chr>  <chr>   <chr>   <chr>   <dttm>              <chr>   <chr>  
    ##  1 Main Expa… Base … BS      Expans… 102     1999-01-09 00:00:00 "102"   <NA>   
    ##  2 Main Expa… Jungle JU      Pokémo… 64      1999-06-16 00:00:00 "48"    <NA>   
    ##  3 Main Expa… Fossil FO      Myster… 62      1999-10-10 00:00:00 "48"    <NA>   
    ##  4 Main Expa… Base … B2      <NA>    130     2000-02-24 00:00:00 ""      ""     
    ##  5 Main Expa… Team … TR      Rocket… 83      2000-04-24 00:00:00 "65"    <NA>   
    ##  6 Main Expa… Gym H… G1      Leader… 132     2000-08-14 00:00:00 "96"    <NA>   
    ##  7 Main Expa… Gym C… G2      Challe… 132     2000-10-16 00:00:00 "98"    <NA>   
    ##  8 Main Expa… Neo G… N1      Gold, … 111     2000-12-16 00:00:00 "96"    <NA>   
    ##  9 Main Expa… Neo D… N2      Crossi… 75      2001-06-01 00:00:00 "56"    <NA>   
    ## 10 Main Expa… Neo R… N3      Awaken… 66      2001-09-21 00:00:00 "57"    <NA>   
    ## # … with 136 more rows, 2 more variables: release_date_ja_1 <dttm>,
    ## #   release_date_ja_2 <dttm>, and abbreviated variable names ¹​series_class,
    ## #   ²​series_abb, ³​series_ja, ⁴​cards_total, ⁵​cards_total_ja_1, ⁶​cards_total_ja_2
    ## # ℹ Use `print(n = ...)` to see more rows, and `colnames()` to see all variable names
…
  series_classification_df5 |> 
  # rowid_to_column("id") |>
  pivot_longer(
    !series_class:release_date,
    # !series_class:release_date, 
    names_to = c(".value", "ja_variation"),
    names_pattern = "(.*)_(1|2)",
    # names_sep = "_", 
    values_drop_na = TRUE
  ) |> 
  select(-ja_variation)
series_classification_df6
```

    ## # A tibble: 179 × 8
    ##    series_class   series     serie…¹ serie…² cards…³ release_date        cards…⁴
    ##    <chr>          <chr>      <chr>   <chr>   <chr>   <dttm>              <chr>  
    ##  1 Main Expansion Base Set   BS      Expans… 102     1999-01-09 00:00:00 "102"  
    ##  2 Main Expansion Jungle     JU      Pokémo… 64      1999-06-16 00:00:00 "48"   
    ##  3 Main Expansion Fossil     FO      Myster… 62      1999-10-10 00:00:00 "48"   
    ##  4 Main Expansion Base Set 2 B2      <NA>    130     2000-02-24 00:00:00 ""     
    ##  5 Main Expansion Base Set 2 B2      <NA>    130     2000-02-24 00:00:00 ""     
    ##  6 Main Expansion Team Rock… TR      Rocket… 83      2000-04-24 00:00:00 "65"   
    ##  7 Main Expansion Gym Heroes G1      Leader… 132     2000-08-14 00:00:00 "96"   
    ##  8 Main Expansion Gym Chall… G2      Challe… 132     2000-10-16 00:00:00 "98"   
    ##  9 Main Expansion Neo Genes… N1      Gold, … 111     2000-12-16 00:00:00 "96"   
    ## 10 Main Expansion Neo Disco… N2      Crossi… 75      2001-06-01 00:00:00 "56"   
    ## # … with 169 more rows, 1 more variable: release_date_ja <dttm>, and
    ## #   abbreviated variable names ¹​series_abb, ²​series_ja, ³​cards_total,
    ## #   ⁴​cards_total_ja
    ## # ℹ Use `print(n = ...)` to see more rows, and `colnames()` to see all variable names
…
      `Mcdonalds Collection 2015` = "McDonald's Collection 2015",
      `Mcdonalds Collection 2014` = "McDonald's Collection 2014",
      `McDonalds Collection 2012` = "McDonald's Collection 2012", # not Mcd!
      `X and Y` = "XY",
      `X and Y Promos` = "XY Black Star Promos",
      `McDonalds Collection` = "McDonald's Collection",
      `Black and White` = "Black & White", 
      `HeartGold and SoulSilver` = "HeartGold & SoulSilver"
    ),
    series = str_replace(series, "Pop", "POP")
  )
release_dates_df3
```

    ## # A tibble: 125 × 3
    ##    series                    release_date        series_gen
    ##    <chr>                     <dttm>                   <int>
    ##  1 Base Set                  1999-01-09 00:00:00          1
    ##  2 Jungle                    1999-06-16 00:00:00          1
    ##  3 Wizards Black Star Promos 1999-07-02 00:00:00          1
    ##  4 Fossil                    1999-10-10 00:00:00          1
    ##  5 Base Set 2                2000-02-24 00:00:00          1
    ##  6 Team Rocket               2000-04-24 00:00:00          1
    ##  7 Gym Heroes                2000-08-04 00:00:00          1
    ##  8 Gym Challenge             2000-10-16 00:00:00          1
    ##  9 Neo Genesis               2000-12-16 00:00:00          2
    ## 10 Neo Discovery             2001-06-01 00:00:00          2
    ## # … with 115 more rows
    ## # ℹ Use `print(n = ...)` to see more rows
…
  series_classification_df6, 
  release_dates_df3,
  by = c("series")) |> 
  distinct() |> 
  mutate(
    series_class = 
      case_when(
        str_detect(series, "Trainer\\sKit") ~ "Trainer Kit", 
        TRUE ~ series_class
      )
  )
series_release_df1
```

    ## # A tibble: 157 × 10
    ##    series_class   series     serie…¹ serie…² cards…³ release_date.x      cards…⁴
    ##    <chr>          <chr>      <chr>   <chr>   <chr>   <dttm>              <chr>  
    ##  1 Main Expansion Base Set   BS      Expans… 102     1999-01-09 00:00:00 "102"  
    ##  2 Main Expansion Jungle     JU      Pokémo… 64      1999-06-16 00:00:00 "48"   
    ##  3 Main Expansion Fossil     FO      Myster… 62      1999-10-10 00:00:00 "48"   
    ##  4 Main Expansion Base Set 2 B2      <NA>    130     2000-02-24 00:00:00 ""     
    ##  5 Main Expansion Team Rock… TR      Rocket… 83      2000-04-24 00:00:00 "65"   
    ##  6 Main Expansion Gym Heroes G1      Leader… 132     2000-08-14 00:00:00 "96"   
    ##  7 Main Expansion Gym Chall… G2      Challe… 132     2000-10-16 00:00:00 "98"   
    ##  8 Main Expansion Neo Genes… N1      Gold, … 111     2000-12-16 00:00:00 "96"   
    ##  9 Main Expansion Neo Disco… N2      Crossi… 75      2001-06-01 00:00:00 "56"   
    ## 10 Main Expansion Neo Revel… N3      Awaken… 66      2001-09-21 00:00:00 "57"   
    ## # … with 147 more rows, 3 more variables: release_date_ja <dttm>,
    ## #   release_date.y <dttm>, series_gen <int>, and abbreviated variable names
    ## #   ¹​series_abb, ²​series_ja, ³​cards_total, ⁴​cards_total_ja
    ## # ℹ Use `print(n = ...)` to see more rows, and `colnames()` to see all variable names
…
      ),
      release_date.x = NULL,
      release_date.y = NULL,
      cards_total = cards_total |> as.character() |> as.integer(),
      cards_total_ja = cards_total |> as.character() |> as.integer(),
      series_class = case_when(
        series == "Pokemon GO" ~ "Special Expansion",
        TRUE ~ series_class
      )
  ) |> 
  select(series_class, series, release_date, cards_total, series_gen, series_abb,  series_ja, release_date_ja, cards_total_ja, everything() )
df_series # 157 x 11
```

    ## # A tibble: 157 × 11
    ##    series_class   series     release_date        cards…¹ serie…² serie…³ serie…⁴
    ##    <chr>          <chr>      <dttm>                <int>   <int> <chr>   <chr>  
    ##  1 Main Expansion Base Set   1999-01-09 00:00:00     102       1 BS      Expans…
    ##  2 Main Expansion Jungle     1999-06-16 00:00:00      64       1 JU      Pokémo…
    ##  3 Main Expansion Fossil     1999-10-10 00:00:00      62       1 FO      Myster…
    ##  4 Main Expansion Base Set 2 2000-02-24 00:00:00     130       1 B2      <NA>   
    ##  5 Main Expansion Team Rock… 2000-04-24 00:00:00      83       1 TR      Rocket…
    ##  6 Main Expansion Gym Heroes 2000-08-14 00:00:00     132       1 G1      Leader…
    ##  7 Main Expansion Gym Chall… 2000-10-16 00:00:00     132       1 G2      Challe…
    ##  8 Main Expansion Neo Genes… 2000-12-16 00:00:00     111       2 N1      Gold, …
    ##  9 Main Expansion Neo Disco… 2001-06-01 00:00:00      75       2 N2      Crossi…
    ## 10 Main Expansion Neo Revel… 2001-09-21 00:00:00      66       2 N3      Awaken…
    ## # … with 147 more rows, 4 more variables: release_date_ja <dttm>,
    ## #   cards_total_ja <int>, meta_is_bulba_only <lgl>, meta_is_v325_only <lgl>,
    ## #   and abbreviated variable names ¹​cards_total, ²​series_gen, ³​series_abb,
    ## #   ⁴​series_ja
    ## # ℹ Use `print(n = ...)` to see more rows, and `colnames()` to see all variable names
…
``` r
everything_df_merged <-
  left_join(
    everything_df_bulbanized,
    df_series_en,
    by = c("series")
  ) 
everything_df_merged # 15029 x 11
```

    ## # A tibble: 15,029 × 11
    ##    `Set #` Name       Type    series serie…¹ release_date        cards…² serie…³
    ##    <chr>   <chr>      <chr>   <chr>  <chr>   <dttm>                <int>   <int>
    ##  1 1.0     Pikachu    Lightn… Wizar… Black … 1999-07-01 00:00:00      53       1
    ##  2 2.0     Electabuzz Lightn… Wizar… Black … 1999-07-01 00:00:00      53       1
    ##  3 3.0     Mewtwo     Psychic Wizar… Black … 1999-07-01 00:00:00      53       1
    ##  4 4.0     Pikachu    Lightn… Wizar… Black … 1999-07-01 00:00:00      53       1
    ##  5 5.0     Dragonite  Colorl… Wizar… Black … 1999-07-01 00:00:00      53       1
    ##  6 6.0     Arcanine   Fire    Wizar… Black … 1999-07-01 00:00:00      53       1
    ##  7 7.0     Jigglypuff Colorl… Wizar… Black … 1999-07-01 00:00:00      53       1
    ##  8 8.0     Mew        Psychic Wizar… Black … 1999-07-01 00:00:00      53       1
    ##  9 9.0     Mew        Psychic Wizar… Black … 1999-07-01 00:00:00      53       1
    ## 10 10.0    Meowth     Colorl… Wizar… Black … 1999-07-01 00:00:00      53       1
    ## # … with 15,019 more rows, 3 more variables: series_abb <chr>,
    ## #   meta_is_bulba_only <lgl>, meta_is_v325_only <lgl>, and abbreviated variable
    ## #   names ¹​series_class, ²​cards_total, ³​series_gen
    ## # ℹ Use `print(n = ...)` to see more rows, and `colnames()` to see all variable names
…
